…
filter(features, is.na(product_id)==TRUE) # always observe your missing values before proceeding! 
## # A tibble: 1 x 9
##   product_id  count unique_users unique_orders freq_ord_dow freq_hour
##        <int>  <int>        <int>         <int>        <int>     <int>
## 1         NA 206209       206209        206209            0        15
## # ... with 3 more variables: avg_days_prior <dbl>, freq_add_to_cart <int>,
## #   reordered_n <int>
features <- filter(features, is.na(product_id)==FALSE)
We can’t do anything with the product_id being missing as it is id. We remove it. Now, we proceed the same as previously, we scale our features:

#dplyr
scaled_features <- mutate_at(features, vars(-product_id), scale)
scaled_features
## # A tibble: 49,677 x 9
##    product_id count[,1] unique_users[,1] unique_orders[,~ freq_ord_dow[,1]
##         <int>     <dbl>            <dbl>            <dbl>            <dbl>
##  1          1    0.250            0.342            0.250            -0.479
##  2          2   -0.117           -0.145           -0.117             1.80 
##  3          3   -0.0784          -0.148           -0.0784           -0.479
##  4          4   -0.0676          -0.0656          -0.0676           -0.935
##  5          5   -0.133           -0.200           -0.133            -0.935
##  6          6   -0.135           -0.201           -0.135             1.80 
##  7          7   -0.130           -0.191           -0.130             0.433
##  8          8   -0.102           -0.142           -0.102            -0.935
##  9          9   -0.104           -0.148           -0.104             1.80 
## 10         10    0.400            0.764            0.400            -0.479
## # ... with 49,667 more rows, and 4 more variables: freq_hour[,1] <dbl>,
## #   avg_days_prior[,1] <dbl>, freq_add_to_cart[,1] <dbl>,
## #   reordered_n[,1] <dbl>
…
