…
Let’s keep the raw dataset unchanged and create a new dataset, where we start to collect required features:

customers <- dt_raw %>% 
  group_by(customer_id) %>%
  mutate(year = as.integer(substr(transaction_date, start=1, stop=4))) %>% # we take only year
  mutate(min_year = as.integer(min(year)), 
         max_year=as.integer(max(year)), 
         years_active=as.integer((max_year-min_year)+1)) # years of first and last purchase of the customer and amount of years he/she was active
customers
## # A tibble: 4,181 x 8
## # Groups:   customer_id [1,000]
##    transaction_id transaction_date customer_id amount  year min_year max_year
##             <int> <fct>                  <int>  <dbl> <int>    <int>    <int>
##  1              1 2012-09-04                 1  21.0   2012     2012     2012
##  2              2 2012-05-15                 2  10.9   2012     2012     2014
##  3              3 2014-05-23                 2   2.21  2014     2012     2014
##  4              4 2014-10-24                 2  10.5   2014     2012     2014
##  5              5 2012-10-13                 2   3.94  2012     2012     2014
##  6              6 2013-01-23                 2  12.4   2013     2012     2014
##  7              7 2014-03-09                 2   1.59  2014     2012     2014
##  8              8 2013-11-17                 2   2.75  2013     2012     2014
##  9              9 2014-10-10                 2   3.51  2014     2012     2014
## 10             10 2012-11-26                 3  21.6   2012     2012     2015
## # ... with 4,171 more rows, and 1 more variable: years_active <int>
…
#collect features, this one you already seen. the only difference is groupings
dt_year <- dt_raw %>%
  mutate(year = substr(transaction_date, start=1, stop=4), year=as.integer(year)) %>%
  group_by(customer_id) %>%
  mutate(min_year = min(year), max_year=max(year), years_active=max_year-min_year) %>% # creating min, max years
  ungroup() %>%
  group_by(customer_id, year) %>%
  summarise(transaction_per_customer = n(), # amount of reservations in each group
            amount_per_customer = sum(amount), 
            amount_per_transaction=amount_per_customer/transaction_per_customer, 
            min_year=first(min_year),
            years_active=first(years_active))
dt_year
## # A tibble: 2,432 x 7
## # Groups:   customer_id [1,000]
##    customer_id  year transaction_per~ amount_per_cust~ amount_per_tran~ min_year
##          <int> <int>            <int>            <dbl>            <dbl>    <int>
##  1           1  2012                1            21.0             21.0      2012
##  2           2  2012                2            14.8              7.40     2012
##  3           2  2013                2            15.1              7.56     2012
##  4           2  2014                4            17.8              4.45     2012
##  5           3  2012                1            21.6             21.6      2012
##  6           3  2013                2            25.4             12.7      2012
##  7           3  2014                2             7.68             3.84     2012
##  8           3  2015                2             7.83             3.92     2012
##  9           4  2015                1             0.54             0.54     2015
## 10           5  2015                2            21.4             10.7      2015
## # ... with 2,422 more rows, and 1 more variable: years_active <int>
…
